Oliver Zingg - Learning R with R for Data Science
…
Dplyrs Funktionen

filter() = filtert Reihen ohne ihre Reihenfolge zu ändern

arrange() = verändert Reihenfolge ohne zu filtern

Diese Funktionen können mit logischen Statments als Argumente umgehen. %in% ist eine abgekürzte Schreibweise für | und ==.

Code
# A shorter way to select flights that departed in January or February
flights |> 
  filter(month %in% c(1, 2))

# A tibble: 51,955 × 19
    year month   day dep_time sched_dep_time dep_delay arr_time sched_arr_time
   <int> <int> <int>    <int>          <int>     <dbl>    <int>          <int>
 1  2013     1     1      517            515         2      830            819
 2  2013     1     1      533            529         4      850            830
 3  2013     1     1      542            540         2      923            850
 4  2013     1     1      544            545        -1     1004           1022
 5  2013     1     1      554            600        -6      812            837
 6  2013     1     1      554            558        -4      740            728
 7  2013     1     1      555            600        -5      913            854
 8  2013     1     1      557            600        -3      709            723
 9  2013     1     1      557            600        -3      838            846
10  2013     1     1      558            600        -2      753            745
# ℹ 51,945 more rows
# ℹ 11 more variables: arr_delay <dbl>, carrier <chr>, flight <int>,
#   tailnum <chr>, origin <chr>, dest <chr>, air_time <dbl>, distance <dbl>,
#   hour <dbl>, minute <dbl>, time_hour <dttm>

Code
flights |> 
  arrange(year, month, day, dep_time)

# A tibble: 336,776 × 19
    year month   day dep_time sched_dep_time dep_delay arr_time sched_arr_time
   <int> <int> <int>    <int>          <int>     <dbl>    <int>          <int>
 1  2013     1     1      517            515         2      830            819
 2  2013     1     1      533            529         4      850            830
 3  2013     1     1      542            540         2      923            850
 4  2013     1     1      544            545        -1     1004           1022
 5  2013     1     1      554            600        -6      812            837
 6  2013     1     1      554            558        -4      740            728
 7  2013     1     1      555            600        -5      913            854
 8  2013     1     1      557            600        -3      709            723
 9  2013     1     1      557            600        -3      838            846
10  2013     1     1      558            600        -2      753            745
# ℹ 336,766 more rows
# ℹ 11 more variables: arr_delay <dbl>, carrier <chr>, flight <int>,
#   tailnum <chr>, origin <chr>, dest <chr>, air_time <dbl>, distance <dbl>,
#   hour <dbl>, minute <dbl>, time_hour <dttm>

Mit der Funktion distinct() kann man Reihne, die mehrfach wiederholt werden rausfiltern

Code
flights |>
  distinct()

# A tibble: 336,776 × 19
    year month   day dep_time sched_dep_time dep_delay arr_time sched_arr_time
   <int> <int> <int>    <int>          <int>     <dbl>    <int>          <int>
 1  2013     1     1      517            515         2      830            819
 2  2013     1     1      533            529         4      850            830
 3  2013     1     1      542            540         2      923            850
 4  2013     1     1      544            545        -1     1004           1022
 5  2013     1     1      554            600        -6      812            837
 6  2013     1     1      554            558        -4      740            728
 7  2013     1     1      555            600        -5      913            854
 8  2013     1     1      557            600        -3      709            723
 9  2013     1     1      557            600        -3      838            846
10  2013     1     1      558            600        -2      753            745
# ℹ 336,766 more rows
# ℹ 11 more variables: arr_delay <dbl>, carrier <chr>, flight <int>,
#   tailnum <chr>, origin <chr>, dest <chr>, air_time <dbl>, distance <dbl>,
#   hour <dbl>, minute <dbl>, time_hour <dttm>

Alle einzigartige Kombination von Abflug- und Ankunftsort lassen sich folgenermassen herausfiltern:

Code
flights |>
  distinct(origin,dest)

# A tibble: 224 × 2
   origin dest 
   <chr>  <chr>
 1 EWR    IAH  
 2 LGA    IAH  
 3 JFK    MIA  
 4 JFK    BQN  
 5 LGA    ATL  
 6 EWR    ORD  
 7 EWR    FLL  
 8 LGA    IAD  
 9 JFK    MCO  
10 LGA    ORD  
# ℹ 214 more rows

Mit count() kann man die Anzahl Flüge dieser Kombination kalkulieren

Code
flights |>
  count(origin, dest, sort = TRUE)

# A tibble: 224 × 3
   origin dest      n
   <chr>  <chr> <int>
 1 JFK    LAX   11262
 2 LGA    ATL   10263
 3 LGA    ORD    8857
 4 JFK    SFO    8204
 5 LGA    CLT    6168
 6 EWR    ORD    6100
 7 JFK    BOS    5898
 8 LGA    MIA    5781
 9 JFK    MCO    5464
10 EWR    BOS    5327
# ℹ 214 more rows
…
Code
# dataset |>
#  select(num_range("x", 1:3)) selektioniert x1, x2 and x3.

Mit ==select(new variable name = variable)== kann man die selektionierten Variablen neu benennen. Falls man alle anderen Variablen behalten will, kann man auch ==rename()== verwenden.

Excercise

Sort flights to find the flights with longest departure delays. Find the flights that left earliest in the morning.

Code
flights |>
  arrange(desc(dep_delay))

# A tibble: 336,776 × 19
    year month   day dep_time sched_dep_time dep_delay arr_time sched_arr_time
   <int> <int> <int>    <int>          <int>     <dbl>    <int>          <int>
 1  2013     1     9      641            900      1301     1242           1530
 2  2013     6    15     1432           1935      1137     1607           2120
 3  2013     1    10     1121           1635      1126     1239           1810
 4  2013     9    20     1139           1845      1014     1457           2210
 5  2013     7    22      845           1600      1005     1044           1815
 6  2013     4    10     1100           1900       960     1342           2211
 7  2013     3    17     2321            810       911      135           1020
 8  2013     6    27      959           1900       899     1236           2226
 9  2013     7    22     2257            759       898      121           1026
10  2013    12     5      756           1700       896     1058           2020
# ℹ 336,766 more rows
# ℹ 11 more variables: arr_delay <dbl>, carrier <chr>, flight <int>,
#   tailnum <chr>, origin <chr>, dest <chr>, air_time <dbl>, distance <dbl>,
#   hour <dbl>, minute <dbl>, time_hour <dttm>

Code
flights|>
  arrange(time_hour)

# A tibble: 336,776 × 19
    year month   day dep_time sched_dep_time dep_delay arr_time sched_arr_time
   <int> <int> <int>    <int>          <int>     <dbl>    <int>          <int>
 1  2013     1     1      517            515         2      830            819
 2  2013     1     1      533            529         4      850            830
 3  2013     1     1      542            540         2      923            850
 4  2013     1     1      544            545        -1     1004           1022
 5  2013     1     1      554            558        -4      740            728
 6  2013     1     1      559            559         0      702            706
 7  2013     1     1      554            600        -6      812            837
 8  2013     1     1      555            600        -5      913            854
 9  2013     1     1      557            600        -3      709            723
10  2013     1     1      557            600        -3      838            846
# ℹ 336,766 more rows
# ℹ 11 more variables: arr_delay <dbl>, carrier <chr>, flight <int>,
#   tailnum <chr>, origin <chr>, dest <chr>, air_time <dbl>, distance <dbl>,
#   hour <dbl>, minute <dbl>, time_hour <dttm>

Sort flights to find the fastest flights. (Hint: Try including a math calculation inside of your function.)

Code
flights |>
  mutate(speed = distance/air_time *60, .before = 1) |>  #.before = 1 adds speed to start of coloumns, we can also use .before = year
  arrange(desc(speed))

# A tibble: 336,776 × 20
   speed  year month   day dep_time sched_dep_time dep_delay arr_time
   <dbl> <int> <int> <int>    <int>          <int>     <dbl>    <int>
 1  703.  2013     5    25     1709           1700         9     1923
 2  650.  2013     7     2     1558           1513        45     1745
 3  648   2013     5    13     2040           2025        15     2225
 4  641.  2013     3    23     1914           1910         4     2045
 5  591.  2013     1    12     1559           1600        -1     1849
 6  564   2013    11    17      650            655        -5     1059
 7  557.  2013     2    21     2355           2358        -3      412
 8  556.  2013    11    17      759            800        -1     1212
 9  554.  2013    11    16     2003           1925        38       17
10  554.  2013    11    16     2349           2359       -10      402
# ℹ 336,766 more rows
# ℹ 12 more variables: sched_arr_time <int>, arr_delay <dbl>, carrier <chr>,
#   flight <int>, tailnum <chr>, origin <chr>, dest <chr>, air_time <dbl>,
#   distance <dbl>, hour <dbl>, minute <dbl>, time_hour <dttm>
…
# A tibble: 1 × 1
      n
  <int>
1   365

Fast flight to Houston’s IAH airport

Code
flights |> 
  filter(dest == "IAH") |> 
  mutate(speed = distance / air_time * 60) |> 
  select(year:day, dep_time, carrier, flight, speed) |> 
  arrange(desc(speed)) 

# A tibble: 7,198 × 7
    year month   day dep_time carrier flight speed
   <int> <int> <int>    <int> <chr>    <int> <dbl>
 1  2013     7     9      707 UA         226  522.
 2  2013     8    27     1850 UA        1128  521.
 3  2013     8    28      902 UA        1711  519.
 4  2013     8    28     2122 UA        1022  519.
 5  2013     6    11     1628 UA        1178  515.
 6  2013     8    27     1017 UA         333  515.
 7  2013     8    27     1205 UA        1421  515.
 8  2013     8    27     1758 UA         302  515.
 9  2013     9    27      521 UA         252  515.
10  2013     8    28      625 UA         559  515.
# ℹ 7,188 more rows
…
Find most delays flight for each destination

Code
flights |> 
  group_by(dest) |> 
  slice_max(arr_delay, n = 1) |> #if two flights same delay both are kept, with_ties = FALSE if strictly only one row per destination 
  relocate(dest) |>
  arrange(desc(arr_delay))

# A tibble: 108 × 19
# Groups:   dest [105]
   dest   year month   day dep_time sched_dep_time dep_delay arr_time
   <chr> <int> <int> <int>    <int>          <int>     <dbl>    <int>
 1 HNL    2013     1     9      641            900      1301     1242
 2 CMH    2013     6    15     1432           1935      1137     1607
 3 ORD    2013     1    10     1121           1635      1126     1239
 4 SFO    2013     9    20     1139           1845      1014     1457
 5 CVG    2013     7    22      845           1600      1005     1044
 6 TPA    2013     4    10     1100           1900       960     1342
 7 MSP    2013     3    17     2321            810       911      135
 8 ATL    2013     7    22     2257            759       898      121
 9 MIA    2013    12     5      756           1700       896     1058
10 LAS    2013     5    19      713           1700       853     1007
# ℹ 98 more rows
# ℹ 11 more variables: sched_arr_time <int>, arr_delay <dbl>, carrier <chr>,
#   flight <int>, tailnum <chr>, origin <chr>, air_time <dbl>, distance <dbl>,
#   hour <dbl>, minute <dbl>, time_hour <dttm>
…
