Oliver Zingg - Simpson’s Paradox
…
Die Boxplotte deuten darauf hin, dass bei Gentoo ein geschlechtsspezifischer Unterschiedlich im Body Mass zu sehen ist, wobei dies möglicherweise nicht der Fall ist bei Adelie und Chinstrap.

Code

penguins %>%
  select(species, sex, body_mass_g) %>%
  arrange(desc(body_mass_g))

# A tibble: 344 × 3
   species sex   body_mass_g
   <fct>   <fct>       <int>
 1 Gentoo  male         6300
 2 Gentoo  male         6050
 3 Gentoo  male         6000
 4 Gentoo  male         6000
 5 Gentoo  male         5950
 6 Gentoo  male         5950
 7 Gentoo  male         5850
 8 Gentoo  male         5850
 9 Gentoo  male         5850
10 Gentoo  male         5800
# ℹ 334 more rows
…
# A tibble: 2 × 5
  species   sex        n n_species  prop
  <fct>     <fct>  <int>     <int> <dbl>
1 Chinstrap female    34        68    50
2 Chinstrap male      34        68    50

Code

penguins_new <-
  penguins %>%
  mutate(year_factor = factor(year, levels = unique(year)))
penguins_new

# A tibble: 344 × 9
   species island    bill_length_mm bill_depth_mm flipper_length_mm body_mass_g
   <fct>   <fct>              <dbl>         <dbl>             <int>       <int>
 1 Adelie  Torgersen           39.1          18.7               181        3750
 2 Adelie  Torgersen           39.5          17.4               186        3800
 3 Adelie  Torgersen           40.3          18                 195        3250
 4 Adelie  Torgersen           NA            NA                  NA          NA
 5 Adelie  Torgersen           36.7          19.3               193        3450
 6 Adelie  Torgersen           39.3          20.6               190        3650
 7 Adelie  Torgersen           38.9          17.8               181        3625
 8 Adelie  Torgersen           39.2          19.6               195        4675
 9 Adelie  Torgersen           34.1          18.1               193        3475
10 Adelie  Torgersen           42            20.2               190        4250
# ℹ 334 more rows
# ℹ 3 more variables: sex <fct>, year <int>, year_factor <fct>
…
